%YAML 1.1
%TAG !u! tag:unity3d.com,2011:
--- !u!64 &9199665858131689735
MeshCollider:
  m_ObjectHideFlags: 0
  m_CorrespondingSourceObject: {fileID: 0}
  m_PrefabInstance: {fileID: 0}
  m_PrefabAsset: {fileID: 0}
  m_GameObject: {fileID: 4749172710231329871}
  m_Material: {fileID: 0}
  m_IsTrigger: 0
  m_Enabled: 1
  serializedVersion: 3
  m_Convex: 0
  m_CookingOptions: 14
  m_Mesh: {fileID: 4300000, guid: 55a7737296dd416499c24a4311e33529, type: 3}
--- !u!1001 &4749172710231296751
PrefabInstance:
  m_ObjectHideFlags: 0
  serializedVersion: 2
  m_Modification:
    m_TransformParent: {fileID: 0}
    m_Modifications:
    - target: {fileID: 100000, guid: 55a7737296dd416499c24a4311e33529, type: 3}
      propertyPath: m_Name
      value: RW_LP_VP_Item_Drink.006
      objectReference: {fileID: 0}
    - target: {fileID: 400000, guid: 55a7737296dd416499c24a4311e33529, type: 3}
      propertyPath: m_LocalPosition.x
      value: 0
      objectReference: {fileID: 0}
    - target: {fileID: 400000, guid: 55a7737296dd416499c24a4311e33529, type: 3}
      propertyPath: m_LocalPosition.y
      value: 0
      objectReference: {fileID: 0}
    - target: {fileID: 400000, guid: 55a7737296dd416499c24a4311e33529, type: 3}
      propertyPath: m_LocalPosition.z
      value: 0
      objectReference: {fileID: 0}
    - target: {fileID: 400000, guid: 55a7737296dd416499c24a4311e33529, type: 3}
      propertyPath: m_LocalRotation.x
      value: 0
      objectReference: {fileID: 0}
    - target: {fileID: 400000, guid: 55a7737296dd416499c24a4311e33529, type: 3}
      propertyPath: m_LocalRotation.y
      value: 0
      objectReference: {fileID: 0}
    - target: {fileID: 400000, guid: 55a7737296dd416499c24a4311e33529, type: 3}
      propertyPath: m_LocalRotation.z
      value: 0
      objectReference: {fileID: 0}
    - target: {fileID: 400000, guid: 55a7737296dd416499c24a4311e33529, type: 3}
      propertyPath: m_LocalRotation.w
      value: 1
      objectReference: {fileID: 0}
    - target: {fileID: 400000, guid: 55a7737296dd416499c24a4311e33529, type: 3}
      propertyPath: m_RootOrder
      value: 0
      objectReference: {fileID: 0}
    - target: {fileID: 400000, guid: 55a7737296dd416499c24a4311e33529, type: 3}
      propertyPath: m_LocalEulerAnglesHint.x
      value: 0
      objectReference: {fileID: 0}
    - target: {fileID: 400000, guid: 55a7737296dd416499c24a4311e33529, type: 3}
      propertyPath: m_LocalEulerAnglesHint.y
      value: 0
      objectReference: {fileID: 0}
    - target: {fileID: 400000, guid: 55a7737296dd416499c24a4311e33529, type: 3}
      propertyPath: m_LocalEulerAnglesHint.z
      value: 0
      objectReference: {fileID: 0}
    - target: {fileID: 2300000, guid: 55a7737296dd416499c24a4311e33529, type: 3}
      propertyPath: m_Materials.Array.data[0]
      value: 
      objectReference: {fileID: 2100000, guid: b82ff16cd7fc0944fad050067ee1a70d, type: 2}
    m_RemovedComponents: []
  m_SourcePrefab: {fileID: 100100000, guid: 55a7737296dd416499c24a4311e33529, type: 3}
--- !u!1 &4749172710231329871 stripped
GameObject:
  m_CorrespondingSourceObject: {fileID: 100000, guid: 55a7737296dd416499c24a4311e33529,
    type: 3}
  m_PrefabInstance: {fileID: 4749172710231296751}
  m_PrefabAsset: {fileID: 0}
