%YAML 1.1
%TAG !u! tag:unity3d.com,2011:
--- !u!64 &5520060764179344695
MeshCollider:
  m_ObjectHideFlags: 0
  m_CorrespondingSourceObject: {fileID: 0}
  m_PrefabInstance: {fileID: 0}
  m_PrefabAsset: {fileID: 0}
  m_GameObject: {fileID: 7354744183773923606}
  m_Material: {fileID: 0}
  m_IsTrigger: 0
  m_Enabled: 1
  serializedVersion: 4
  m_Convex: 0
  m_CookingOptions: 30
  m_Mesh: {fileID: -935471712488583455, guid: 08e5c9883658fce4f9e5b3164be935e8, type: 3}
--- !u!1001 &7696692513083110471
PrefabInstance:
  m_ObjectHideFlags: 0
  serializedVersion: 2
  m_Modification:
    m_TransformParent: {fileID: 0}
    m_Modifications:
    - target: {fileID: -8679921383154817045, guid: 08e5c9883658fce4f9e5b3164be935e8,
        type: 3}
      propertyPath: m_LocalPosition.x
      value: 0
      objectReference: {fileID: 0}
    - target: {fileID: -8679921383154817045, guid: 08e5c9883658fce4f9e5b3164be935e8,
        type: 3}
      propertyPath: m_LocalPosition.y
      value: 0
      objectReference: {fileID: 0}
    - target: {fileID: -8679921383154817045, guid: 08e5c9883658fce4f9e5b3164be935e8,
        type: 3}
      propertyPath: m_LocalPosition.z
      value: 0
      objectReference: {fileID: 0}
    - target: {fileID: -8679921383154817045, guid: 08e5c9883658fce4f9e5b3164be935e8,
        type: 3}
      propertyPath: m_LocalRotation.x
      value: 0
      objectReference: {fileID: 0}
    - target: {fileID: -8679921383154817045, guid: 08e5c9883658fce4f9e5b3164be935e8,
        type: 3}
      propertyPath: m_LocalRotation.y
      value: 0
      objectReference: {fileID: 0}
    - target: {fileID: -8679921383154817045, guid: 08e5c9883658fce4f9e5b3164be935e8,
        type: 3}
      propertyPath: m_LocalRotation.z
      value: 0
      objectReference: {fileID: 0}
    - target: {fileID: -8679921383154817045, guid: 08e5c9883658fce4f9e5b3164be935e8,
        type: 3}
      propertyPath: m_LocalRotation.w
      value: 1
      objectReference: {fileID: 0}
    - target: {fileID: -8679921383154817045, guid: 08e5c9883658fce4f9e5b3164be935e8,
        type: 3}
      propertyPath: m_RootOrder
      value: 0
      objectReference: {fileID: 0}
    - target: {fileID: -8679921383154817045, guid: 08e5c9883658fce4f9e5b3164be935e8,
        type: 3}
      propertyPath: m_LocalEulerAnglesHint.x
      value: 0
      objectReference: {fileID: 0}
    - target: {fileID: -8679921383154817045, guid: 08e5c9883658fce4f9e5b3164be935e8,
        type: 3}
      propertyPath: m_LocalEulerAnglesHint.y
      value: 0
      objectReference: {fileID: 0}
    - target: {fileID: -8679921383154817045, guid: 08e5c9883658fce4f9e5b3164be935e8,
        type: 3}
      propertyPath: m_LocalEulerAnglesHint.z
      value: 0
      objectReference: {fileID: 0}
    - target: {fileID: -7511558181221131132, guid: 08e5c9883658fce4f9e5b3164be935e8,
        type: 3}
      propertyPath: m_Materials.Array.data[0]
      value: 
      objectReference: {fileID: 2100000, guid: b82ff16cd7fc0944fad050067ee1a70d, type: 2}
    - target: {fileID: 919132149155446097, guid: 08e5c9883658fce4f9e5b3164be935e8,
        type: 3}
      propertyPath: m_Name
      value: RW_LP_VP_Item_Window
      objectReference: {fileID: 0}
    m_RemovedComponents: []
  m_SourcePrefab: {fileID: 100100000, guid: 08e5c9883658fce4f9e5b3164be935e8, type: 3}
--- !u!1 &7354744183773923606 stripped
GameObject:
  m_CorrespondingSourceObject: {fileID: 919132149155446097, guid: 08e5c9883658fce4f9e5b3164be935e8,
    type: 3}
  m_PrefabInstance: {fileID: 7696692513083110471}
  m_PrefabAsset: {fileID: 0}
