%YAML 1.1
%TAG !u! tag:unity3d.com,2011:
--- !u!64 &6629599273630215564
MeshCollider:
  m_ObjectHideFlags: 0
  m_CorrespondingSourceObject: {fileID: 0}
  m_PrefabInstance: {fileID: 0}
  m_PrefabAsset: {fileID: 0}
  m_GameObject: {fileID: 905079238056812602}
  m_Material: {fileID: 0}
  m_IsTrigger: 0
  m_Enabled: 1
  serializedVersion: 4
  m_Convex: 0
  m_CookingOptions: 30
  m_Mesh: {fileID: 4300000, guid: e54a42e33a4ba0843a21269cf338d2e3, type: 3}
--- !u!1001 &1875960977
PrefabInstance:
  m_ObjectHideFlags: 0
  serializedVersion: 2
  m_Modification:
    m_TransformParent: {fileID: 905079238056655898}
    m_Modifications:
    - target: {fileID: 3882342728394611854, guid: 2b09f91df5c592341b2f73f1eeba7ba3,
        type: 3}
      propertyPath: m_RootOrder
      value: 0
      objectReference: {fileID: 0}
    - target: {fileID: 3882342728394611854, guid: 2b09f91df5c592341b2f73f1eeba7ba3,
        type: 3}
      propertyPath: m_LocalPosition.x
      value: -0.017000198
      objectReference: {fileID: 0}
    - target: {fileID: 3882342728394611854, guid: 2b09f91df5c592341b2f73f1eeba7ba3,
        type: 3}
      propertyPath: m_LocalPosition.y
      value: 0.426
      objectReference: {fileID: 0}
    - target: {fileID: 3882342728394611854, guid: 2b09f91df5c592341b2f73f1eeba7ba3,
        type: 3}
      propertyPath: m_LocalPosition.z
      value: 0.13499999
      objectReference: {fileID: 0}
    - target: {fileID: 3882342728394611854, guid: 2b09f91df5c592341b2f73f1eeba7ba3,
        type: 3}
      propertyPath: m_LocalEulerAnglesHint.x
      value: 0
      objectReference: {fileID: 0}
    - target: {fileID: 3882342728394611854, guid: 2b09f91df5c592341b2f73f1eeba7ba3,
        type: 3}
      propertyPath: m_LocalEulerAnglesHint.y
      value: 0
      objectReference: {fileID: 0}
    - target: {fileID: 3882342728394611854, guid: 2b09f91df5c592341b2f73f1eeba7ba3,
        type: 3}
      propertyPath: m_LocalEulerAnglesHint.z
      value: 0
      objectReference: {fileID: 0}
    - target: {fileID: 3882342728394611854, guid: 2b09f91df5c592341b2f73f1eeba7ba3,
        type: 3}
      propertyPath: m_LocalRotation.x
      value: -0
      objectReference: {fileID: 0}
    - target: {fileID: 3882342728394611854, guid: 2b09f91df5c592341b2f73f1eeba7ba3,
        type: 3}
      propertyPath: m_LocalRotation.y
      value: -0
      objectReference: {fileID: 0}
    - target: {fileID: 3882342728394611854, guid: 2b09f91df5c592341b2f73f1eeba7ba3,
        type: 3}
      propertyPath: m_LocalRotation.z
      value: -0
      objectReference: {fileID: 0}
    - target: {fileID: 3882342728394611855, guid: 2b09f91df5c592341b2f73f1eeba7ba3,
        type: 3}
      propertyPath: m_Name
      value: RW_LP_VP_Effect_Fire
      objectReference: {fileID: 0}
    m_RemovedComponents: []
  m_SourcePrefab: {fileID: 100100000, guid: 2b09f91df5c592341b2f73f1eeba7ba3, type: 3}
--- !u!1001 &905079238056781466
PrefabInstance:
  m_ObjectHideFlags: 0
  serializedVersion: 2
  m_Modification:
    m_TransformParent: {fileID: 0}
    m_Modifications:
    - target: {fileID: 100000, guid: e54a42e33a4ba0843a21269cf338d2e3, type: 3}
      propertyPath: m_Name
      value: RW_LP_VP_Item_FirePlace
      objectReference: {fileID: 0}
    - target: {fileID: 400000, guid: e54a42e33a4ba0843a21269cf338d2e3, type: 3}
      propertyPath: m_LocalPosition.x
      value: 0
      objectReference: {fileID: 0}
    - target: {fileID: 400000, guid: e54a42e33a4ba0843a21269cf338d2e3, type: 3}
      propertyPath: m_LocalPosition.y
      value: 0
      objectReference: {fileID: 0}
    - target: {fileID: 400000, guid: e54a42e33a4ba0843a21269cf338d2e3, type: 3}
      propertyPath: m_LocalPosition.z
      value: 0
      objectReference: {fileID: 0}
    - target: {fileID: 400000, guid: e54a42e33a4ba0843a21269cf338d2e3, type: 3}
      propertyPath: m_LocalRotation.x
      value: -0
      objectReference: {fileID: 0}
    - target: {fileID: 400000, guid: e54a42e33a4ba0843a21269cf338d2e3, type: 3}
      propertyPath: m_LocalRotation.y
      value: -0
      objectReference: {fileID: 0}
    - target: {fileID: 400000, guid: e54a42e33a4ba0843a21269cf338d2e3, type: 3}
      propertyPath: m_LocalRotation.z
      value: -0
      objectReference: {fileID: 0}
    - target: {fileID: 400000, guid: e54a42e33a4ba0843a21269cf338d2e3, type: 3}
      propertyPath: m_LocalRotation.w
      value: 1
      objectReference: {fileID: 0}
    - target: {fileID: 400000, guid: e54a42e33a4ba0843a21269cf338d2e3, type: 3}
      propertyPath: m_RootOrder
      value: 0
      objectReference: {fileID: 0}
    - target: {fileID: 400000, guid: e54a42e33a4ba0843a21269cf338d2e3, type: 3}
      propertyPath: m_LocalEulerAnglesHint.x
      value: 0
      objectReference: {fileID: 0}
    - target: {fileID: 400000, guid: e54a42e33a4ba0843a21269cf338d2e3, type: 3}
      propertyPath: m_LocalEulerAnglesHint.y
      value: 0
      objectReference: {fileID: 0}
    - target: {fileID: 400000, guid: e54a42e33a4ba0843a21269cf338d2e3, type: 3}
      propertyPath: m_LocalEulerAnglesHint.z
      value: 0
      objectReference: {fileID: 0}
    - target: {fileID: 2300000, guid: e54a42e33a4ba0843a21269cf338d2e3, type: 3}
      propertyPath: m_Materials.Array.data[0]
      value: 
      objectReference: {fileID: 2100000, guid: b82ff16cd7fc0944fad050067ee1a70d, type: 2}
    m_RemovedComponents: []
  m_SourcePrefab: {fileID: 100100000, guid: e54a42e33a4ba0843a21269cf338d2e3, type: 3}
--- !u!1 &905079238056812602 stripped
GameObject:
  m_CorrespondingSourceObject: {fileID: 100000, guid: e54a42e33a4ba0843a21269cf338d2e3,
    type: 3}
  m_PrefabInstance: {fileID: 905079238056781466}
  m_PrefabAsset: {fileID: 0}
--- !u!4 &905079238056655898 stripped
Transform:
  m_CorrespondingSourceObject: {fileID: 400000, guid: e54a42e33a4ba0843a21269cf338d2e3,
    type: 3}
  m_PrefabInstance: {fileID: 905079238056781466}
  m_PrefabAsset: {fileID: 0}
