%YAML 1.1
%TAG !u! tag:unity3d.com,2011:
--- !u!64 &951595255824780723
MeshCollider:
  m_ObjectHideFlags: 0
  m_CorrespondingSourceObject: {fileID: 0}
  m_PrefabInstance: {fileID: 0}
  m_PrefabAsset: {fileID: 0}
  m_GameObject: {fileID: 5860401610335215428}
  m_Material: {fileID: 0}
  m_IsTrigger: 0
  m_Enabled: 1
  serializedVersion: 4
  m_Convex: 0
  m_CookingOptions: 30
  m_Mesh: {fileID: 4300000, guid: 7fe8789ea7d321148a49d1a5084fc314, type: 3}
--- !u!64 &7542265069632170499
MeshCollider:
  m_ObjectHideFlags: 0
  m_CorrespondingSourceObject: {fileID: 0}
  m_PrefabInstance: {fileID: 0}
  m_PrefabAsset: {fileID: 0}
  m_GameObject: {fileID: 5860401610335215426}
  m_Material: {fileID: 0}
  m_IsTrigger: 0
  m_Enabled: 1
  serializedVersion: 4
  m_Convex: 0
  m_CookingOptions: 30
  m_Mesh: {fileID: 4300002, guid: 7fe8789ea7d321148a49d1a5084fc314, type: 3}
--- !u!1001 &5860401610335312358
PrefabInstance:
  m_ObjectHideFlags: 0
  serializedVersion: 2
  m_Modification:
    m_TransformParent: {fileID: 0}
    m_Modifications:
    - target: {fileID: -1504981713932161579, guid: 7fe8789ea7d321148a49d1a5084fc314,
        type: 3}
      propertyPath: m_Materials.Array.data[0]
      value: 
      objectReference: {fileID: 2100000, guid: b82ff16cd7fc0944fad050067ee1a70d, type: 2}
    - target: {fileID: 100000, guid: 7fe8789ea7d321148a49d1a5084fc314, type: 3}
      propertyPath: m_Name
      value: RW_LP_VP_Item_ChocolateBox.003
      objectReference: {fileID: 0}
    - target: {fileID: 400000, guid: 7fe8789ea7d321148a49d1a5084fc314, type: 3}
      propertyPath: m_LocalPosition.x
      value: 0
      objectReference: {fileID: 0}
    - target: {fileID: 400000, guid: 7fe8789ea7d321148a49d1a5084fc314, type: 3}
      propertyPath: m_LocalPosition.y
      value: 0
      objectReference: {fileID: 0}
    - target: {fileID: 400000, guid: 7fe8789ea7d321148a49d1a5084fc314, type: 3}
      propertyPath: m_LocalPosition.z
      value: 0
      objectReference: {fileID: 0}
    - target: {fileID: 400000, guid: 7fe8789ea7d321148a49d1a5084fc314, type: 3}
      propertyPath: m_LocalRotation.x
      value: 0
      objectReference: {fileID: 0}
    - target: {fileID: 400000, guid: 7fe8789ea7d321148a49d1a5084fc314, type: 3}
      propertyPath: m_LocalRotation.y
      value: 0
      objectReference: {fileID: 0}
    - target: {fileID: 400000, guid: 7fe8789ea7d321148a49d1a5084fc314, type: 3}
      propertyPath: m_LocalRotation.z
      value: 0
      objectReference: {fileID: 0}
    - target: {fileID: 400000, guid: 7fe8789ea7d321148a49d1a5084fc314, type: 3}
      propertyPath: m_LocalRotation.w
      value: 1
      objectReference: {fileID: 0}
    - target: {fileID: 400000, guid: 7fe8789ea7d321148a49d1a5084fc314, type: 3}
      propertyPath: m_RootOrder
      value: 0
      objectReference: {fileID: 0}
    - target: {fileID: 400000, guid: 7fe8789ea7d321148a49d1a5084fc314, type: 3}
      propertyPath: m_LocalEulerAnglesHint.x
      value: 0
      objectReference: {fileID: 0}
    - target: {fileID: 400000, guid: 7fe8789ea7d321148a49d1a5084fc314, type: 3}
      propertyPath: m_LocalEulerAnglesHint.y
      value: 0
      objectReference: {fileID: 0}
    - target: {fileID: 400000, guid: 7fe8789ea7d321148a49d1a5084fc314, type: 3}
      propertyPath: m_LocalEulerAnglesHint.z
      value: 0
      objectReference: {fileID: 0}
    - target: {fileID: 2300000, guid: 7fe8789ea7d321148a49d1a5084fc314, type: 3}
      propertyPath: m_Materials.Array.data[0]
      value: 
      objectReference: {fileID: 2100000, guid: b82ff16cd7fc0944fad050067ee1a70d, type: 2}
    - target: {fileID: 2300002, guid: 7fe8789ea7d321148a49d1a5084fc314, type: 3}
      propertyPath: m_Materials.Array.data[0]
      value: 
      objectReference: {fileID: 2100000, guid: b82ff16cd7fc0944fad050067ee1a70d, type: 2}
    m_RemovedComponents: []
  m_SourcePrefab: {fileID: 100100000, guid: 7fe8789ea7d321148a49d1a5084fc314, type: 3}
--- !u!1 &5860401610335215428 stripped
GameObject:
  m_CorrespondingSourceObject: {fileID: 100002, guid: 7fe8789ea7d321148a49d1a5084fc314,
    type: 3}
  m_PrefabInstance: {fileID: 5860401610335312358}
  m_PrefabAsset: {fileID: 0}
--- !u!1 &5860401610335215426 stripped
GameObject:
  m_CorrespondingSourceObject: {fileID: 100004, guid: 7fe8789ea7d321148a49d1a5084fc314,
    type: 3}
  m_PrefabInstance: {fileID: 5860401610335312358}
  m_PrefabAsset: {fileID: 0}
