%YAML 1.1
%TAG !u! tag:unity3d.com,2011:
--- !u!64 &-2235028862161989812
MeshCollider:
  m_ObjectHideFlags: 0
  m_CorrespondingSourceObject: {fileID: 0}
  m_PrefabInstance: {fileID: 0}
  m_PrefabAsset: {fileID: 0}
  m_GameObject: {fileID: 4244325380205313274}
  m_Material: {fileID: 0}
  m_IsTrigger: 0
  m_Enabled: 1
  serializedVersion: 4
  m_Convex: 0
  m_CookingOptions: 30
  m_Mesh: {fileID: 4300000, guid: fdaf666acb3ad0a44afd8431b5ef452d, type: 3}
--- !u!1001 &4244325380205214298
PrefabInstance:
  m_ObjectHideFlags: 0
  serializedVersion: 2
  m_Modification:
    m_TransformParent: {fileID: 0}
    m_Modifications:
    - target: {fileID: -8679921383154817045, guid: fdaf666acb3ad0a44afd8431b5ef452d,
        type: 3}
      propertyPath: m_RootOrder
      value: 0
      objectReference: {fileID: 0}
    - target: {fileID: -8679921383154817045, guid: fdaf666acb3ad0a44afd8431b5ef452d,
        type: 3}
      propertyPath: m_LocalPosition.x
      value: 0
      objectReference: {fileID: 0}
    - target: {fileID: -8679921383154817045, guid: fdaf666acb3ad0a44afd8431b5ef452d,
        type: 3}
      propertyPath: m_LocalPosition.y
      value: 0
      objectReference: {fileID: 0}
    - target: {fileID: -8679921383154817045, guid: fdaf666acb3ad0a44afd8431b5ef452d,
        type: 3}
      propertyPath: m_LocalPosition.z
      value: 0
      objectReference: {fileID: 0}
    - target: {fileID: -8679921383154817045, guid: fdaf666acb3ad0a44afd8431b5ef452d,
        type: 3}
      propertyPath: m_LocalRotation.w
      value: 1
      objectReference: {fileID: 0}
    - target: {fileID: -8679921383154817045, guid: fdaf666acb3ad0a44afd8431b5ef452d,
        type: 3}
      propertyPath: m_LocalRotation.x
      value: 0
      objectReference: {fileID: 0}
    - target: {fileID: -8679921383154817045, guid: fdaf666acb3ad0a44afd8431b5ef452d,
        type: 3}
      propertyPath: m_LocalRotation.y
      value: 0
      objectReference: {fileID: 0}
    - target: {fileID: -8679921383154817045, guid: fdaf666acb3ad0a44afd8431b5ef452d,
        type: 3}
      propertyPath: m_LocalRotation.z
      value: 0
      objectReference: {fileID: 0}
    - target: {fileID: -8679921383154817045, guid: fdaf666acb3ad0a44afd8431b5ef452d,
        type: 3}
      propertyPath: m_LocalEulerAnglesHint.x
      value: 0
      objectReference: {fileID: 0}
    - target: {fileID: -8679921383154817045, guid: fdaf666acb3ad0a44afd8431b5ef452d,
        type: 3}
      propertyPath: m_LocalEulerAnglesHint.y
      value: 0
      objectReference: {fileID: 0}
    - target: {fileID: -8679921383154817045, guid: fdaf666acb3ad0a44afd8431b5ef452d,
        type: 3}
      propertyPath: m_LocalEulerAnglesHint.z
      value: 0
      objectReference: {fileID: 0}
    - target: {fileID: -7511558181221131132, guid: fdaf666acb3ad0a44afd8431b5ef452d,
        type: 3}
      propertyPath: m_Materials.Array.data[0]
      value: 
      objectReference: {fileID: 2100000, guid: b82ff16cd7fc0944fad050067ee1a70d, type: 2}
    - target: {fileID: 2300000, guid: fdaf666acb3ad0a44afd8431b5ef452d, type: 3}
      propertyPath: m_Materials.Array.data[0]
      value: 
      objectReference: {fileID: 2100000, guid: b82ff16cd7fc0944fad050067ee1a70d, type: 2}
    - target: {fileID: 919132149155446097, guid: fdaf666acb3ad0a44afd8431b5ef452d,
        type: 3}
      propertyPath: m_Name
      value: RW_LP_VP_Item_CandleFlameless.002
      objectReference: {fileID: 0}
    m_RemovedComponents: []
  m_SourcePrefab: {fileID: 100100000, guid: fdaf666acb3ad0a44afd8431b5ef452d, type: 3}
--- !u!1 &4244325380205313274 stripped
GameObject:
  m_CorrespondingSourceObject: {fileID: 100000, guid: fdaf666acb3ad0a44afd8431b5ef452d,
    type: 3}
  m_PrefabInstance: {fileID: 4244325380205214298}
  m_PrefabAsset: {fileID: 0}
